tabela:
1&  27.143 $\pm$ 0.003&	54.143 $\pm$ 0.007&	81.064 $\pm$ 0.018&	107.983 $\pm$ 0.028& 135.349 $\pm$ 0.013\\
4&  7.240  $\pm$ 0.004&	14.399 $\pm$ 0.006&	21.476 $\pm$ 0.006&	28.532  $\pm$ 0.007& 35.754  $\pm$ 0.011\\
8&  3.849  $\pm$ 0.002&	7.567  $\pm$ 0.002&	11.288 $\pm$ 0.007&	14.995  $\pm$ 0.005& 18.690  $\pm$ 0.005\\
16& 3.872  $\pm$ 0.016&	7.319  $\pm$ 0.028&	10.748 $\pm$ 0.063&	14.575  $\pm$ 0.034& 17.373  $\pm$ 0.034\\
24& 2.836  $\pm$ 0.005&	5.212  $\pm$ 0.007&	7.576  $\pm$ 0.006&	9.905   $\pm$ 0.008& 12.387  $\pm$ 0.012\\
32& 4.161  $\pm$ 0.009&	7.127  $\pm$ 0.014&	9.503  $\pm$ 0.018&	12.268  $\pm$ 0.024& 15.144  $\pm$ 0.019\\

samo povprecje:
27.143  54.143  81.064  107.983 135.349
7.240   14.399  21.476  28.532  35.754 
3.849   7.567   11.288  14.995  18.690 
3.872   7.319   10.748  14.575  17.373 
2.836   5.212   7.576   9.905   12.387 
4.161   7.127   9.503   12.268  15.144 
