tabla:
10.811 +- 0.003 21.639 +- 0.005 32.447 +- 0.006 43.243 +- 0.011 54.265 +- 0.010
2.882 +- 0.002  5.776 +- 0.002  8.639 +- 0.002  11.496 +- 0.002 14.368 +- 0.005
1.518 +- 0.003  3.036 +- 0.003  4.537 +- 0.003  6.065 +- 0.003  7.571 +- 0.005
1.490 +- 0.027  2.970 +- 0.041  4.477 +- 0.019  6.028 +- 0.010  7.574 +- 0.073
1.039 +- 0.004  2.095 +- 0.007  3.098 +- 0.005  4.147 +- 0.007  5.160 +- 0.004
1.431 +- 0.007  2.875 +- 0.008  4.277 +- 0.010  5.734 +- 0.010  7.145 +- 0.012

samo povprecje:
10.811  21.639  32.447  43.243  54.265
2.882   5.776   8.639   11.496  14.368
1.518   3.036   4.537   6.065   7.571 
1.490   2.970   4.477   6.028   7.574 
1.039   2.095   3.098   4.147   5.160 
1.431   2.875   4.277   5.734   7.145 
