-- cas --
raw:
25.766 +- 0.360  47.139 +- 0.367  67.710 +- 0.460  89.321 +- 0.742  111.376 +- 0.560
12.357 +- 0.064  24.162 +- 0.320  36.318 +- 0.717  47.401 +- 0.909   60.982 +- 1.376
 6.786 +- 0.050  20.326 +- 2.275  27.343 +- 2.912  37.005 +- 1.026   47.910 +- 0.861
 4.802 +- 0.035  12.928 +- 0.496  20.191 +- 0.293  26.228 +- 0.253   33.213 +- 0.055
 6.212 +- 0.663  19.525 +- 0.021  20.234 +- 2.339  32.431 +- 3.058   42.443 +- 3.881

tabela latex:
\diagbox{P}{N} & 5k & 10k & 15k & 20k & 25k \\ \hline \hline
1  & 25,76 $\pm$ 0,36 & 47,13 $\pm$ 0,36 & 67,71 $\pm$ 0,46 & 89,32 $\pm$ 0,74 & 111,37 $\pm$ 0,56 \\
2  & 12,35 $\pm$ 0,06 & 24,16 $\pm$ 0,32 & 36,31 $\pm$ 0,71 & 47,40 $\pm$ 0,90 &  60,98 $\pm$ 1,37 \\
4  &  6,78 $\pm$ 0,05 & 20,32 $\pm$ 2,27 & 27,34 $\pm$ 2,91 & 37,00 $\pm$ 1,02 &  47,91 $\pm$ 0,86 \\
8  &  4,80 $\pm$ 0,03 & 12,92 $\pm$ 0,49 & 20,19 $\pm$ 0,29 & 26,22 $\pm$ 0,25 &  33,21 $\pm$ 0,05 \\
16 &  6,21 $\pm$ 0,66 & 19,52 $\pm$ 0,02 & 20,23 $\pm$ 2,33 & 32,43 $\pm$ 3,05 &  42,44 $\pm$ 3,88 \\

tabela matlab:
25.766 47.139 67.710 89.321 111.376
12.357 24.162 36.318 47.401  60.982
 6.786 20.326 27.343 37.005  47.910
 4.802 12.928 20.191 26.228  33.213
 6.212 19.525 20.234 32.431  42.443

-- pohitritev --
raw:
    2.0851    1.9510    1.8644    1.8844    1.8264
    3.7969    2.3191    2.4763    2.4138    2.3247
    5.3657    3.6463    3.3535    3.4056    3.3534
    4.1478    2.4143    3.3463    2.7542    2.6241

tabela latex:
\diagbox{P}{N} & 5k & 10k & 15k & 20k & 25k \\ \hline \hline
2  & 2,0 & 1,9 & 1,8 & 1,8 & 1,8 \\
4  & 3,7 & 2,3 & 2,4 & 2,4 & 2,3 \\
8  & 5,3 & 3,6 & 3,3 & 3,4 & 3,3 \\
16 & 4,1 & 2,4 & 3,3 & 2,7 & 2,6 \\

-- ucinkovitost --
raw:
    1.0426    0.9755    0.9322    0.9422    0.9132
    0.9492    0.5798    0.6191    0.6034    0.5812
    0.6707    0.4558    0.4192    0.4257    0.4192
    0.2592    0.1509    0.2091    0.1721    0.1640

tabela latex:
\diagbox{P}{N} & 5k & 10k & 15k & 20k & 25k \\ \hline \hline
2  & 1,04 & 0,97 & 0,93 & 0,94 & 0,91 \\
4  & 0,94 & 0,57 & 0,61 & 0,60 & 0,58 \\
8  & 0,67 & 0,45 & 0,41 & 0,42 & 0,41 \\
16 & 0,25 & 0,15 & 0,20 & 0,17 & 0,16 \\

