Dataset size= 30000
Hidden layer size = 25
Iterations = 100

Run:	   1	Duration:	160.753922
Run:	   2	Duration:	160.557490
Run:	   3	Duration:	161.214850
Run:	   4	Duration:	160.907229

Povprecje:
160.858 +- 0.120
